<svg width="50" height="50" viewBox="0 0 50 50" fill="none" xmlns="http://www.w3.org/2000/svg">
<path fill-rule="evenodd" clip-rule="evenodd" d="M6.30463 10.9545C10.2941 7.12455 16.7406 7.12455 20.7301 10.9545L24.9965 15.0503L29.2629 10.9545C33.2525 7.12455 39.699 7.12455 43.6885 10.9545C47.6779 14.7844 47.6779 20.973 43.6885 24.803L24.9965 42.7472L6.30463 24.803C2.31513 20.973 2.31513 14.7844 6.30463 10.9545ZM17.7838 13.7829C15.4215 11.5151 11.6132 11.5151 9.2509 13.7829C6.88858 16.0507 6.88858 19.7067 9.2509 21.9746L24.9965 37.0904L40.7423 21.9746C43.1046 19.7067 43.1046 16.0507 40.7423 13.7829C38.38 11.5151 34.5717 11.5151 32.2094 13.7829L24.9965 20.7072L17.7838 13.7829Z" fill="#F36223"/>
</svg>
